Study1_Anlysis
…
gratitude$country <- as.factor(gratitude$country)
gratitude$code <- as.factor(gratitude$code)
gratitude$negativity <- as.factor(gratitude$negativity)

love |>
  filter(code %in% names(table(code))[table(code) >= 10]) |>
  group_by(country, code) |>
  summarise(n = n())

`summarise()` has grouped output by 'country'. You can override using the
`.groups` argument.

# A tibble: 24 × 3
# Groups:   country [3]
   country code      n
   <fct>   <fct> <int>
 1 1       0        11
 2 1       1        52
 3 1       2         6
 4 1       3        41
 5 1       4         7
 6 1       5        25
 7 1       6        23
 8 1       8        18
 9 2       0         2
10 2       1        40
# ℹ 14 more rows

love |>
  group_by(country, code) |>
  summarise(n = n())

`summarise()` has grouped output by 'country'. You can override using the
`.groups` argument.

# A tibble: 41 × 3
# Groups:   country [3]
   country code      n
   <fct>   <fct> <int>
 1 1       0        11
 2 1       1        52
 3 1       2         6
 4 1       3        41
 5 1       4         7
 6 1       5        25
 7 1       6        23
 8 1       7         5
 9 1       8        18
10 1       11        3
# ℹ 31 more rows

gratitude |>
  filter(code %in% names(table(code))[table(code) >= 10]) |>
  group_by(country, code) |>
  summarise(n = n())

`summarise()` has grouped output by 'country'. You can override using the
`.groups` argument.

# A tibble: 32 × 3
# Groups:   country [3]
   country code      n
   <fct>   <fct> <int>
 1 1       0        18
 2 1       2         4
 3 1       3        18
 4 1       4        41
 5 1       5         4
 6 1       6        49
 7 1       8         4
 8 1       13        9
 9 1       14        3
10 1       15        5
# ℹ 22 more rows

gratitude |>
  group_by(country, code) |>
  summarise(n = n())

`summarise()` has grouped output by 'country'. You can override using the
`.groups` argument.

# A tibble: 44 × 3
# Groups:   country [3]
   country code      n
   <fct>   <fct> <int>
 1 1       0        18
 2 1       1         4
 3 1       2         4
 4 1       3        18
 5 1       4        41
 6 1       5         4
 7 1       6        49
 8 1       7         3
 9 1       8         4
10 1       9         1
# ℹ 34 more rows
…
